Curve-based + traditional analysis of Bipolaris epidemics
…
str(dat)

'data.frame':   885 obs. of  6 variables:
 $ y         : num  0.0001 0.03 0.035 0.035 0.065 0.15 0.2 0.25 0.25 0.25 ...
 $ DAE       : num  49 54 62 68 78 84 90 97 103 109 ...
 $ Ambiente  : Factor w/ 6 levels "2024_Arapoti_Cedo",..: 1 1 1 1 1 1 1 1 1 1 ...
 $ Hibrido   : Factor w/ 13 levels "AG 8701 PRO4",..: 1 1 1 1 1 1 1 1 1 1 ...
 $ curve_id  : Factor w/ 74 levels "2024_Arapoti_Cedo.AG 8701 PRO4",..: 1 1 1 1 1 1 1 1 1 1 ...
 $ resistance: Factor w/ 2 levels "MR","R": 1 1 1 1 1 1 1 1 1 1 ...

dat |> 
  group_by(Ambiente) |> 
  count(DAE)

# A tibble: 71 × 3
# Groups:   Ambiente [6]
   Ambiente            DAE     n
   <fct>             <dbl> <int>
 1 2024_Arapoti_Cedo    49    11
 2 2024_Arapoti_Cedo    54    11
 3 2024_Arapoti_Cedo    62    11
 4 2024_Arapoti_Cedo    68    11
 5 2024_Arapoti_Cedo    78    11
 6 2024_Arapoti_Cedo    84    11
 7 2024_Arapoti_Cedo    90    11
 8 2024_Arapoti_Cedo    97    11
 9 2024_Arapoti_Cedo   103    11
10 2024_Arapoti_Cedo   109    11
# ℹ 61 more rows
…
